digraph structs {
node [shape=plaintext]
nodesep=0;
subgraph cluster_stack{
label = STACK;
stack_table [label=<
<TABLE CELLBORDER="1" BORDER="0" CELLSPACING="0">
<TR>
<TD BORDER="0"></TD>
<TD ><B>name</B></TD>
<TD ><B>type</B></TD>
<TD ><B>value</B></TD>
</TR>
<TR>
<TD ROWSPAN="1">main</TD>
<TD ALIGN="center" BGCOLOR="chartreuse">list1</TD>
<TD ALIGN="center" BGCOLOR="chartreuse"><U>list</U></TD>
<TD ALIGN="center" PORT="list1_main_var_XXX" BGCOLOR="chartreuse">●</TD>
</TR>
</TABLE>>]
}
subgraph cluster_heap{
label = HEAP;
inst_XXX [label=<
<TABLE BGCOLOR="GRAY" BORDER="0" CELLBORDER="1" CELLSPACING="0">
<TR>
<TD COLSPAN="1"><U>int</U></TD>
</TR>
<TR>
<TD BGCOLOR="gray">3</TD>
</TR>
</TABLE>>]
inst_XXX:port_child0 -> inst_XXX;
inst_XXX [label=<
<TABLE BGCOLOR="GRAY" BORDER="0" CELLBORDER="1" CELLSPACING="0">
<TR>
<TD COLSPAN="1"><U>int</U></TD>
</TR>
<TR>
<TD BGCOLOR="gray">2</TD>
</TR>
</TABLE>>]
inst_XXX:port_child1 -> inst_XXX;
inst_XXX [label=<
<TABLE BGCOLOR="GRAY" BORDER="0" CELLBORDER="1" CELLSPACING="0">
<TR>
<TD COLSPAN="1"><U>int</U></TD>
</TR>
<TR>
<TD BGCOLOR="gray">1</TD>
</TR>
</TABLE>>]
inst_XXX:port_child2 -> inst_XXX;
inst_XXX [label=<
<TABLE BGCOLOR="GRAY" BORDER="0" CELLBORDER="1" CELLSPACING="0">
<TR>
<TD COLSPAN="1"><U>str</U></TD>
</TR>
<TR>
<TD BGCOLOR="gray">"ready"</TD>
</TR>
</TABLE>>]
inst_XXX:port_child3 -> inst_XXX;
inst_XXX [label=<
<TABLE BGCOLOR="GRAY" BORDER="0" CELLBORDER="1" CELLSPACING="0">
<TR>
<TD COLSPAN="1"><U>str</U></TD>
</TR>
<TR>
<TD BGCOLOR="gray">"study"</TD>
</TR>
</TABLE>>]
inst_XXX:port_child4 -> inst_XXX;
inst_XXX [label=<
<TABLE BGCOLOR="GRAY" BORDER="0" CELLBORDER="1" CELLSPACING="0">
<TR>
<TD COLSPAN="1"><U>str</U></TD>
</TR>
<TR>
<TD BGCOLOR="gray">"go"</TD>
</TR>
</TABLE>>]
inst_XXX:port_child5 -> inst_XXX;
inst_XXX [label=<
<TABLE BGCOLOR="GRAY" BORDER="0" CELLBORDER="1" CELLSPACING="0">
<TR>
<TD COLSPAN="6"><U>list</U></TD>
</TR>
<TR>
<TD BGCOLOR="gray" PORT="port_child0">●</TD>
<TD BGCOLOR="gray" PORT="port_child1">●</TD>
<TD BGCOLOR="gray" PORT="port_child2">●</TD>
<TD BGCOLOR="gray" PORT="port_child3">●</TD>
<TD BGCOLOR="gray" PORT="port_child4">●</TD>
<TD BGCOLOR="gray" PORT="port_child5">●</TD>
</TR>
</TABLE>>]
}
edge [constraint=false]stack_table:list1_main_var_XXX -> inst_XXX;
}