digraph structs {
node [shape=plaintext]
nodesep=0;
subgraph cluster_stack{
label = STACK;
stack_table [label=<
<TABLE CELLBORDER="1" BORDER="0" CELLSPACING="0">
<TR>
<TD BORDER="0" BGCOLOR="white" COLSPAN="2">empty stack</TD>
</TR>
</TABLE>>]
}
subgraph cluster_heap{
label = HEAP;
}
edge [constraint=false]}