digraph structs {
node [shape=plaintext]
nodesep=0;
subgraph cluster_stack{
label = STACK;
stack_table [label=<
<TABLE CELLBORDER="1" BORDER="0" CELLSPACING="0">
<TR>
<TD BORDER="0"></TD>
<TD ><B>name</B></TD>
<TD ><B>type</B></TD>
<TD ><B>value</B></TD>
</TR>
<TR>
<TD ROWSPAN="2">main</TD>
<TD ALIGN="center" BGCOLOR="chartreuse">list1</TD>
<TD ALIGN="center" BGCOLOR="chartreuse"><U>list</U></TD>
<TD ALIGN="center" PORT="list1_main_var_XXX" BGCOLOR="chartreuse">XXX</TD>
</TR>
<TR>
<TD ALIGN="center" BGCOLOR="chartreuse">list2</TD>
<TD ALIGN="center" BGCOLOR="chartreuse"><U>list</U></TD>
<TD ALIGN="center" PORT="list2_main_var_XXX" BGCOLOR="chartreuse">XXX</TD>
</TR>
</TABLE>>]
}
subgraph cluster_heap{
label = HEAP;
inst_XXX [label=<
<TABLE BGCOLOR="GRAY" BORDER="0" CELLBORDER="1" CELLSPACING="0">
<TR>
<TD COLSPAN="6">XXX</TD>
</TR>
<TR>
<TD COLSPAN="6"><U>list</U></TD>
</TR>
<TR>
<TD BGCOLOR="gray" PORT="port_child0">3</TD>
<TD BGCOLOR="gray" PORT="port_child0">42</TD>
<TD BGCOLOR="gray" PORT="port_child0">1</TD>
<TD BGCOLOR="gray" PORT="port_child0">"ready"</TD>
<TD BGCOLOR="gray" PORT="port_child0">"study"</TD>
<TD BGCOLOR="gray" PORT="port_child0">"go"</TD>
</TR>
</TABLE>>]
}
edge [constraint=false]stack_table:list1_main_var_XXX -> inst_XXX;
stack_table:list2_main_var_XXX -> inst_XXX;
}