digraph structs {
node [shape=plaintext]
nodesep=0;
subgraph cluster_stack{
label = STACK;
stack_table [label=<
<TABLE CELLBORDER="1" BORDER="0" CELLSPACING="0">
<TR>
<TD BORDER="0"></TD>
<TD ><B>name</B></TD>
<TD ><B>type</B></TD>
<TD ><B>value</B></TD>
</TR>
<TR>
<TD ROWSPAN="3">main</TD>
<TD ALIGN="center" BGCOLOR="chartreuse">s_stack</TD>
<TD ALIGN="center" BGCOLOR="chartreuse"><U>struct MyStruct</U></TD>
<TD ALIGN="center" PORT="s_stack_main_var_XXX" BGCOLOR="chartreuse">(a=XXX, b=XXX)</TD>
</TR>
<TR>
<TD ALIGN="center" BGCOLOR="chartreuse">s_heap</TD>
<TD ALIGN="center" BGCOLOR="chartreuse"><U>struct MyStruct *</U></TD>
<TD ALIGN="center" PORT="s_heap_main_var_XXX" BGCOLOR="chartreuse">●</TD>
</TR>
<TR>
<TD ALIGN="center" BGCOLOR="chartreuse">other_s_stack</TD>
<TD ALIGN="center" BGCOLOR="chartreuse"><U>struct MyOtherStruct</U></TD>
<TD ALIGN="center" PORT="other_s_stack_main_var_XXX" BGCOLOR="chartreuse">(field_one=(a=XXX, b=XXX), field_two=XXX)</TD>
</TR>
</TABLE>>]
}
subgraph cluster_heap{
label = HEAP;
inst_XXX [label=<
<TABLE BGCOLOR="GRAY" BORDER="0" CELLBORDER="1" CELLSPACING="0">
<TR>
<TD COLSPAN="2"><U>struct MyStruct</U></TD>
</TR>
<TR>
<TD BGCOLOR="gray">a</TD>
<TD BGCOLOR="gray">b</TD>
</TR>
<TR>
<TD BGCOLOR="gray" PORT="port_child0">17</TD>
<TD BGCOLOR="gray" PORT="port_child0">19</TD>
</TR>
</TABLE>>]
}
edge [constraint=false]stack_table:s_heap_main_var_XXX -> inst_XXX;
}