digraph structs {
node [shape=plaintext]
nodesep=0;
subgraph cluster_stack{
label = STACK;
stack_table [label=<
<TABLE CELLBORDER="1" BORDER="0" CELLSPACING="0">
<TR>
<TD BORDER="0"></TD>
<TD ><B>name</B></TD>
<TD ><B>type</B></TD>
<TD ><B>value</B></TD>
</TR>
<TR>
<TD ROWSPAN="1">main</TD>
<TD ALIGN="center" BGCOLOR="chartreuse">a_linked_list</TD>
<TD ALIGN="center" BGCOLOR="chartreuse"><U>Cell</U></TD>
<TD ALIGN="center" PORT="a_linked_list_main_var_XXX" BGCOLOR="chartreuse">XXX</TD>
</TR>
</TABLE>>]
}
subgraph cluster_heap{
label = HEAP;
inst_XXX [label=<
<TABLE BGCOLOR="GRAY" BORDER="0" CELLBORDER="1" CELLSPACING="0">
<TR>
<TD COLSPAN="1">XXX</TD>
</TR>
<TR>
<TD COLSPAN="1"><U>int</U></TD>
</TR>
<TR>
<TD BGCOLOR="gray">1</TD>
</TR>
</TABLE>>]
inst_XXX:port_child0 -> inst_XXX;
inst_XXX [label=<
<TABLE BGCOLOR="GRAY" BORDER="0" CELLBORDER="1" CELLSPACING="0">
<TR>
<TD COLSPAN="1">XXX</TD>
</TR>
<TR>
<TD COLSPAN="1"><U>int</U></TD>
</TR>
<TR>
<TD BGCOLOR="gray">2</TD>
</TR>
</TABLE>>]
inst_XXX:port_child0 -> inst_XXX;
inst_XXX [label=<
<TABLE BGCOLOR="GRAY" BORDER="0" CELLBORDER="1" CELLSPACING="0">
<TR>
<TD COLSPAN="1">XXX</TD>
</TR>
<TR>
<TD COLSPAN="1"><U>int</U></TD>
</TR>
<TR>
<TD BGCOLOR="gray">17</TD>
</TR>
</TABLE>>]
inst_XXX:port_child0 -> inst_XXX;
inst_XXX [label=<
<TABLE BGCOLOR="DEEPPINK" BORDER="0" CELLBORDER="1" CELLSPACING="0">
<TR>
<TD COLSPAN="1">XXX</TD>
</TR>
<TR>
<TD COLSPAN="1"><U>NoneType</U></TD>
</TR>
<TR>
<TD BGCOLOR="deeppink">None</TD>
</TR>
</TABLE>>]
inst_XXX:port_child1 -> inst_XXX;
inst_XXX [label=<
<TABLE BGCOLOR="GRAY" BORDER="0" CELLBORDER="1" CELLSPACING="0">
<TR>
<TD COLSPAN="2">XXX</TD>
</TR>
<TR>
<TD COLSPAN="2"><U>Cell</U></TD>
</TR>
<TR>
<TD BGCOLOR="gray">value</TD>
<TD BGCOLOR="gray">next</TD>
</TR>
<TR>
<TD BGCOLOR="gray" PORT="port_child0">XXX</TD>
<TD BGCOLOR="gray" PORT="port_child1">XXX</TD>
</TR>
</TABLE>>]
inst_XXX:port_child1 -> inst_XXX;
inst_XXX [label=<
<TABLE BGCOLOR="GRAY" BORDER="0" CELLBORDER="1" CELLSPACING="0">
<TR>
<TD COLSPAN="2">XXX</TD>
</TR>
<TR>
<TD COLSPAN="2"><U>Cell</U></TD>
</TR>
<TR>
<TD BGCOLOR="gray">value</TD>
<TD BGCOLOR="gray">next</TD>
</TR>
<TR>
<TD BGCOLOR="gray" PORT="port_child0">XXX</TD>
<TD BGCOLOR="gray" PORT="port_child1">XXX</TD>
</TR>
</TABLE>>]
inst_XXX:port_child1 -> inst_XXX;
inst_XXX [label=<
<TABLE BGCOLOR="GRAY" BORDER="0" CELLBORDER="1" CELLSPACING="0">
<TR>
<TD COLSPAN="2">XXX</TD>
</TR>
<TR>
<TD COLSPAN="2"><U>Cell</U></TD>
</TR>
<TR>
<TD BGCOLOR="gray">value</TD>
<TD BGCOLOR="gray">next</TD>
</TR>
<TR>
<TD BGCOLOR="gray" PORT="port_child0">XXX</TD>
<TD BGCOLOR="gray" PORT="port_child1">XXX</TD>
</TR>
</TABLE>>]
}
edge [constraint=false]stack_table:a_linked_list_main_var_XXX -> inst_XXX;
}