digraph structs {
node [shape=plaintext]
nodesep=0;
subgraph cluster_stack{
label = STACK;
stack_table [label=<
<TABLE CELLBORDER="1" BORDER="0" CELLSPACING="0">
<TR>
<TD BORDER="0"></TD>
<TD ><B>name</B></TD>
<TD ><B>type</B></TD>
<TD ><B>value</B></TD>
</TR>
<TR>
<TD ROWSPAN="1">main</TD>
<TD ALIGN="center" BGCOLOR="chartreuse">integer</TD>
<TD ALIGN="center" BGCOLOR="chartreuse"><U>int</U></TD>
<TD ALIGN="center" PORT="integer_main_var_XXX" BGCOLOR="chartreuse">XXX</TD>
</TR>
<TR>
<TD ROWSPAN="1">add_1</TD>
<TD ALIGN="center" BGCOLOR="chartreuse">integer</TD>
<TD ALIGN="center" BGCOLOR="chartreuse"><U>int</U></TD>
<TD ALIGN="center" PORT="integer_add_1_var_XXX" BGCOLOR="chartreuse">XXX</TD>
</TR>
</TABLE>>]
}
subgraph cluster_heap{
label = HEAP;
inst_XXX [label=<
<TABLE BGCOLOR="GRAY" BORDER="0" CELLBORDER="1" CELLSPACING="0">
<TR>
<TD COLSPAN="1">XXX</TD>
</TR>
<TR>
<TD COLSPAN="1"><U>int</U></TD>
</TR>
<TR>
<TD BGCOLOR="gray">6</TD>
</TR>
</TABLE>>]
}
edge [constraint=false]stack_table:integer_add_1_var_XXX -> inst_XXX;
stack_table:integer_main_var_XXX -> inst_XXX;
}