digraph structs {
node [shape=plaintext]
nodesep=0;
subgraph cluster_stack{
label = STACK;
stack_table [label=<
<TABLE CELLBORDER="1" BORDER="0" CELLSPACING="0">
<TR>
<TD BORDER="0"></TD>
<TD ><B>name</B></TD>
<TD ><B>type</B></TD>
<TD ><B>value</B></TD>
</TR>
<TR>
<TD ROWSPAN="1">main</TD>
<TD BGCOLOR="chartreuse" COLSPAN="4">no local variables</TD>
</TR>
<TR>
<TD ROWSPAN="3">__init__</TD>
<TD ALIGN="center" BGCOLOR="chartreuse">self</TD>
<TD ALIGN="center" BGCOLOR="chartreuse"><U>Cell</U></TD>
<TD ALIGN="center" PORT="self___init___var_XXX" BGCOLOR="chartreuse">XXX</TD>
</TR>
<TR>
<TD ALIGN="center" BGCOLOR="chartreuse">value</TD>
<TD ALIGN="center" BGCOLOR="chartreuse"><U>int</U></TD>
<TD ALIGN="center" PORT="value___init___var_XXX" BGCOLOR="chartreuse">2</TD>
</TR>
<TR>
<TD ALIGN="center" BGCOLOR="chartreuse">next_cell</TD>
<TD ALIGN="center" BGCOLOR="chartreuse"><U>Cell</U></TD>
<TD ALIGN="center" PORT="next_cell___init___var_XXX" BGCOLOR="chartreuse">XXX</TD>
</TR>
</TABLE>>]
}
subgraph cluster_heap{
label = HEAP;
inst_XXX [label=<
<TABLE BGCOLOR="GRAY" BORDER="0" CELLBORDER="1" CELLSPACING="0">
<TR>
<TD COLSPAN="1">XXX</TD>
</TR>
<TR>
<TD COLSPAN="1"><U>Cell</U></TD>
</TR>
<TR>
<TD >empty</TD>
</TR>
</TABLE>>]
inst_XXX [label=<
<TABLE BGCOLOR="DEEPPINK" BORDER="0" CELLBORDER="1" CELLSPACING="0">
<TR>
<TD COLSPAN="1">XXX</TD>
</TR>
<TR>
<TD COLSPAN="1"><U>NoneType</U></TD>
</TR>
<TR>
<TD BGCOLOR="deeppink">None</TD>
</TR>
</TABLE>>]
inst_XXX:port_child0 -> inst_XXX;
inst_XXX [label=<
<TABLE BGCOLOR="GRAY" BORDER="0" CELLBORDER="1" CELLSPACING="0">
<TR>
<TD COLSPAN="2">XXX</TD>
</TR>
<TR>
<TD COLSPAN="2"><U>Cell</U></TD>
</TR>
<TR>
<TD BGCOLOR="gray">value</TD>
<TD BGCOLOR="gray">next</TD>
</TR>
<TR>
<TD BGCOLOR="gray" PORT="port_child0">17</TD>
<TD BGCOLOR="gray" PORT="port_child0">XXX</TD>
</TR>
</TABLE>>]
}
edge [constraint=false]stack_table:self___init___var_XXX -> inst_XXX;
stack_table:next_cell___init___var_XXX -> inst_XXX;
}