digraph structs {
node [shape=plaintext]
nodesep=0;
subgraph cluster_stack{
label = STACK;
stack_table [label=<
<TABLE CELLBORDER="1" BORDER="0" CELLSPACING="0">
<TR>
<TD BORDER="0"></TD>
<TD ><B>name</B></TD>
<TD ><B>type</B></TD>
<TD ><B>value</B></TD>
</TR>
<TR>
<TD ROWSPAN="7">main</TD>
<TD ALIGN="center" BGCOLOR="chartreuse">a</TD>
<TD ALIGN="center" BGCOLOR="chartreuse"><U>int</U></TD>
<TD ALIGN="center" PORT="a_main_var_XXX" BGCOLOR="chartreuse">XXX</TD>
</TR>
<TR>
<TD ALIGN="center" BGCOLOR="chartreuse">b</TD>
<TD ALIGN="center" BGCOLOR="chartreuse"><U>int</U></TD>
<TD ALIGN="center" PORT="b_main_var_XXX" BGCOLOR="chartreuse">XXX</TD>
</TR>
<TR>
<TD ALIGN="center" BGCOLOR="chartreuse">c</TD>
<TD ALIGN="center" BGCOLOR="chartreuse"><U>int *</U></TD>
<TD ALIGN="center" PORT="c_main_var_XXX" BGCOLOR="chartreuse">XXX</TD>
</TR>
<TR>
<TD ALIGN="center" BGCOLOR="chartreuse">d</TD>
<TD ALIGN="center" BGCOLOR="chartreuse"><U>int *</U></TD>
<TD ALIGN="center" PORT="d_main_var_XXX" BGCOLOR="chartreuse">XXX</TD>
</TR>
<TR>
<TD ALIGN="center" BGCOLOR="chartreuse">e</TD>
<TD ALIGN="center" BGCOLOR="chartreuse"><U>int **</U></TD>
<TD ALIGN="center" PORT="e_main_var_XXX" BGCOLOR="chartreuse">XXX</TD>
</TR>
<TR>
<TD ALIGN="center" BGCOLOR="chartreuse">f</TD>
<TD ALIGN="center" BGCOLOR="chartreuse"><U>int **</U></TD>
<TD ALIGN="center" PORT="f_main_var_XXX" BGCOLOR="chartreuse">XXX</TD>
</TR>
<TR>
<TD ALIGN="center" BGCOLOR="chartreuse">g</TD>
<TD ALIGN="center" BGCOLOR="chartreuse"><U>int ***</U></TD>
<TD ALIGN="center" PORT="g_main_var_XXX" BGCOLOR="chartreuse">XXX</TD>
</TR>
</TABLE>>]
}
subgraph cluster_heap{
label = HEAP;
inst_XXX [label=<
<TABLE BGCOLOR="GRAY" BORDER="0" CELLBORDER="1" CELLSPACING="0">
<TR>
<TD COLSPAN="1">XXX</TD>
</TR>
<TR>
<TD COLSPAN="1"><U>int *</U></TD>
</TR>
<TR>
<TD BGCOLOR="gray" PORT="heap_pointer_src_XXX">×</TD>
</TR>
</TABLE>>]
inst_XXX [label=<
<TABLE BGCOLOR="GRAY" BORDER="0" CELLBORDER="1" CELLSPACING="0">
<TR>
<TD COLSPAN="1">XXX</TD>
</TR>
<TR>
<TD COLSPAN="1"><U>int *</U></TD>
</TR>
<TR>
<TD BGCOLOR="gray" PORT="heap_pointer_src_XXX">×</TD>
</TR>
</TABLE>>]
inst_XXX [label=<
<TABLE BGCOLOR="GRAY" BORDER="0" CELLBORDER="1" CELLSPACING="0">
<TR>
<TD COLSPAN="1">XXX</TD>
</TR>
<TR>
<TD COLSPAN="1"><U>int **</U></TD>
</TR>
<TR>
<TD BGCOLOR="gray" PORT="heap_pointer_src_XXX">×</TD>
</TR>
</TABLE>>]
}
edge [constraint=false]stack_table:c_main_var_XXX -> stack_table:a_main_var_XXX;
stack_table:d_main_var_XXX -> stack_table:b_main_var_XXX;
stack_table:e_main_var_XXX -> inst_XXX;
stack_table:f_main_var_XXX -> inst_XXX;
stack_table:g_main_var_XXX -> inst_XXX;
}