digraph structs {
node [shape=plaintext]
nodesep=0;
subgraph cluster_stack{
label = STACK;
stack_table [label=<
<TABLE CELLBORDER="1" BORDER="0" CELLSPACING="0">
<TR>
<TD BORDER="0"></TD>
<TD ><B>name</B></TD>
<TD ><B>type</B></TD>
<TD ><B>value</B></TD>
</TR>
<TR>
<TD ROWSPAN="2">main</TD>
<TD ALIGN="center" BGCOLOR="chartreuse">empty_dict</TD>
<TD ALIGN="center" BGCOLOR="chartreuse"><U>dict</U></TD>
<TD ALIGN="center" PORT="empty_dict_main_var_XXX" BGCOLOR="chartreuse">XXX</TD>
</TR>
<TR>
<TD ALIGN="center" BGCOLOR="chartreuse">non_empty_dict</TD>
<TD ALIGN="center" BGCOLOR="chartreuse"><U>dict</U></TD>
<TD ALIGN="center" PORT="non_empty_dict_main_var_XXX" BGCOLOR="chartreuse">XXX</TD>
</TR>
</TABLE>>]
}
subgraph cluster_heap{
label = HEAP;
inst_XXX [label=<
<TABLE BGCOLOR="GRAY" BORDER="0" CELLBORDER="1" CELLSPACING="0">
<TR>
<TD COLSPAN="1">XXX</TD>
</TR>
<TR>
<TD COLSPAN="1"><U>dict</U></TD>
</TR>
<TR>
<TD >empty</TD>
</TR>
</TABLE>>]
inst_XXX [label=<
<TABLE BGCOLOR="GRAY" BORDER="0" CELLBORDER="1" CELLSPACING="0">
<TR>
<TD COLSPAN="1">XXX</TD>
</TR>
<TR>
<TD COLSPAN="1"><U>str</U></TD>
</TR>
<TR>
<TD BGCOLOR="gray">"Manu"</TD>
</TR>
</TABLE>>]
inst_XXX:key_port_child0 -> inst_XXX;
inst_XXX [label=<
<TABLE BGCOLOR="GRAY" BORDER="0" CELLBORDER="1" CELLSPACING="0">
<TR>
<TD COLSPAN="1">XXX</TD>
</TR>
<TR>
<TD COLSPAN="1"><U>int</U></TD>
</TR>
<TR>
<TD BGCOLOR="gray">40</TD>
</TR>
</TABLE>>]
inst_XXX:value_port_child0 -> inst_XXX;
inst_XXX [label=<
<TABLE BGCOLOR="GRAY" BORDER="0" CELLBORDER="1" CELLSPACING="0">
<TR>
<TD COLSPAN="1">XXX</TD>
</TR>
<TR>
<TD COLSPAN="1"><U>str</U></TD>
</TR>
<TR>
<TD BGCOLOR="gray">"Florent"</TD>
</TR>
</TABLE>>]
inst_XXX:key_port_child2 -> inst_XXX;
inst_XXX [label=<
<TABLE BGCOLOR="GRAY" BORDER="0" CELLBORDER="1" CELLSPACING="0">
<TR>
<TD COLSPAN="1">XXX</TD>
</TR>
<TR>
<TD COLSPAN="1"><U>str</U></TD>
</TR>
<TR>
<TD BGCOLOR="gray">"presque 42"</TD>
</TR>
</TABLE>>]
inst_XXX:value_port_child2 -> inst_XXX;
inst_XXX [label=<
<TABLE BGCOLOR="GRAY" BORDER="0" CELLBORDER="1" CELLSPACING="0">
<TR>
<TD COLSPAN="2">XXX</TD>
</TR>
<TR>
<TD COLSPAN="2"><U>dict</U></TD>
</TR>
<TR>
<TD BGCOLOR="gray">key</TD>
<TD BGCOLOR="gray">value</TD>
</TR>
<TR>
<TD BGCOLOR="gray" PORT="key_port_child0">XXX</TD>
<TD BGCOLOR="gray" PORT="value_port_child0">XXX</TD>
</TR>
<TR>
<TD BGCOLOR="gray" PORT="key_port_child2">XXX</TD>
<TD BGCOLOR="gray" PORT="value_port_child2">XXX</TD>
</TR>
</TABLE>>]
}
edge [constraint=false]stack_table:empty_dict_main_var_XXX -> inst_XXX;
stack_table:non_empty_dict_main_var_XXX -> inst_XXX;
}