digraph structs {
node [shape=plaintext]
nodesep=0;
subgraph cluster_stack{
label = STACK;
stack_table [label=<
<TABLE CELLBORDER="1" BORDER="0" CELLSPACING="0">
<TR>
<TD BORDER="0"></TD>
<TD ><B>name</B></TD>
<TD ><B>type</B></TD>
<TD ><B>value</B></TD>
</TR>
<TR>
<TD ROWSPAN="3">main</TD>
<TD ALIGN="center" BGCOLOR="chartreuse">a</TD>
<TD ALIGN="center" BGCOLOR="chartreuse"><U>int</U></TD>
<TD ALIGN="center" PORT="a_main_var_XXX" BGCOLOR="chartreuse">XXX</TD>
</TR>
<TR>
<TD ALIGN="center" BGCOLOR="chartreuse">b</TD>
<TD ALIGN="center" BGCOLOR="chartreuse"><U>int</U></TD>
<TD ALIGN="center" PORT="b_main_var_XXX" BGCOLOR="chartreuse">XXX</TD>
</TR>
<TR>
<TD ALIGN="center" BGCOLOR="chartreuse">c</TD>
<TD ALIGN="center" BGCOLOR="chartreuse"><U>int *</U></TD>
<TD ALIGN="center" PORT="c_main_var_XXX" BGCOLOR="chartreuse">XXX</TD>
</TR>
</TABLE>>]
}
subgraph cluster_heap{
label = HEAP;
}
edge [constraint=false]}